{
  "name": "Sphinx",
  "description": "Build your documentation with [Sphinx](https://www.sphinx-doc.org/)",
  "template_path": "templates/gitlab-ci-sphinx.yml",
  "kind": "build",
  "prefix": "sphinx",
  "is_component": true,
  "variables": [
    {
      "name": "SPHINX_IMAGE",
      "description": "The Docker image used to run Sphinx",
      "default": "ghcr.io/sphinx-doc/sphinx:latest"
    },
    {
      "name": "SPHINX_BUILD_ARGS",
      "description": "[`sphinx-build` options](https://www.sphinx-doc.org/en/master/man/sphinx-build.html)) to be used",
      "default": "-M html"
    },
    {
      "name": "SPHINX_PROJECT_DIR",
      "description": "Sphinx project root directory",
      "default": "."
    },
    {
      "name": "SPHINX_SOURCE_DIR",
      "description": "Sphinx source directory (relative to `$SPHINX_PROJECT_DIR`) containing the Sphinx `conf.py` file",
      "default": "source",
      "advanced": true
    },
    {
      "name": "SPHINX_BUILD_DIR",
      "description": "Sphinx build output directory (relative to `$SPHINX_PROJECT_DIR`)",
      "default": "build",
      "advanced": true
    },    
    {
      "name": "SPHINX_REQUIREMENTS_FILE",
      "description": "Requirements file (relative to `$SPHINX_PROJECT_DIR`). If the file is not found in the repository, requirements are read from the `SPHINX_REQUIREMENTS` variable",
      "default": "requirements.txt",
      "advanced": true
    },
    {
      "name": "SPHINX_REQUIREMENTS",
      "description": "Space separated requirements (ignored if a requirement file is found)",
      "advanced": true
    },
    {
      "name": "SPHINX_PREBUILD_SCRIPT",
      "description": "Pre-build hook script (relative to `$SPHINX_PROJECT_DIR`)",
      "default": "sphinx-pre-build.sh",
      "advanced": true
    },
    {
      "name": "PIP_OPTS",
      "description": "pip extra [options](https://pip.pypa.io/en/stable/cli/pip/#general-options)",
      "advanced": true
    }
  ],
  "features": [
    {
      "id": "lychee",
      "name": "lychee",
      "description": "Checks broken links and emails with [lychee](https://github.com/lycheeverse/lychee)",
      "enable_with": "SPHINX_LYCHEE_ENABLED",
      "variables": [
        {
          "name": "SPHINX_LYCHEE_IMAGE",
          "description": "The Docker image used to run [lychee](https://github.com/lycheeverse/lychee)",
          "default": "registry.hub.docker.com/lycheeverse/lychee:latest",
          "advanced": true
        },
        {
          "name": "SPHINX_LYCHEE_ARGS",
          "description": "[lychee arguments](https://github.com/lycheeverse/lychee#commandline-parameters) to execute",
          "default": "--exclude-loopback $SPHINX_SOURCE_DIR/**/*.rst"
        }
      ]
    }
  ],
  "variants": [
    {
      "id": "pages",
      "name": "GitLab Pages",
      "description": "Adds a job to publish the generated documentation to GitLab pages",
      "template_path": "templates/gitlab-ci-sphinx-pages.yml"
    }
  ]
}
